[gd_resource type="ShaderMaterial" load_steps=2 format=2]

[ext_resource path="res://elements/depthShadow.shader" type="Shader" id=1]

[resource]
shader = ExtResource( 1 )
shader_param/direction = -0.32
shader_param/angle = -1.038
shader_param/textureMixing = true
shader_param/lit_color = Color( 0.999167, 1, 0.99, 1 )
shader_param/shadow_color = Color( 0.066, 0.2, 0.195533, 1 )
shader_param/textureResolution = Vector2( 2048, 2048 )
